0, -2
0.5, 0.6875
1, 3
1.5, 4.9375
2, 8
2.5, 15.1875
3, 31
3.5, 61.4375
4, 114
4.5, 197.6875
5, 323
5.5, 501.9375
6, 748
6.5, 1076.1875
7, 1503
7.5, 2046.4375
8, 2726
8.5, 3562.6875
9, 4579
9.5, 5798.9375
10, 7248

