   0.00000000       116.653427
  0.100000001       117.138649
  0.200000003       117.627037
  0.300000012       118.118568
  0.400000006       118.613319
  0.500000000       119.111282
  0.600000024       119.612495
  0.700000048       120.117004
  0.800000072       120.624786
  0.900000095       121.135956
   1.00000012       121.650452
   1.10000014       122.168358
   1.20000017       122.689713
   1.30000019       123.214516
   1.40000021       123.742821
   1.50000024       124.274651
   1.60000026       124.810013
   1.70000029       125.348999
   1.80000031       125.891594
   1.90000033       126.437843
   2.00000024       126.987778
   2.10000014       127.541412
   2.20000005       128.098846
   2.29999995       128.660034
   2.39999986       129.225082
   2.49999976       129.793976
   2.59999967       130.366760
   2.69999957       130.943497
   2.79999948       131.524200
   2.89999938       132.108902
   2.99999928       132.697662
   3.09999919       133.290497
   3.19999909       133.887482
   3.29999900       134.488617
   3.39999890       135.093933
   3.49999881       135.703522
   3.59999871       136.317383
   3.69999862       136.935547
   3.79999852       137.558121
   3.89999843       138.185059
   3.99999833       138.816483
   4.09999847       139.452393
   4.19999838       140.092804
   4.29999828       140.737839
   4.39999819       141.387497
   4.49999809       142.041794
   4.59999800       142.700836
   4.69999790       143.364624
   4.79999781       144.033249
   4.89999771       144.706696
   4.99999762       145.385101
   5.09999752       146.068405
   5.19999743       146.756744
   5.29999733       147.450134
   5.39999723       148.148636
   5.49999714       148.852280
   5.59999704       149.561142
   5.69999695       150.275269
   5.79999685       150.994705
   5.89999676       151.719513
   5.99999666       152.449753
   6.09999657       153.185471
   6.19999647       153.926666
   6.29999638       154.673492
   6.39999628       155.426025
   6.49999619       156.184204
   6.59999609       156.948151
   6.69999599       157.717941
   6.79999590       158.493591
   6.89999580       159.275162
   6.99999571       160.062820
   7.09999561       160.856522
   7.19999552       161.656403
   7.29999542       162.462402
   7.39999533       163.274704
   7.49999523       164.093384
   7.59999514       164.918427
   7.69999504       165.749969
   7.79999495       166.587982
   7.89999485       167.432632
   7.99999475       168.284012
   8.09999466       169.142090
   8.19999504       170.007034
   8.29999542       170.878860
   8.39999580       171.757629
   8.49999619       172.643494
   8.59999657       173.536514
   8.69999695       174.436691
   8.79999733       175.344162
   8.89999771       176.259033
   8.99999809       177.181335
   9.09999847       178.111160
   9.19999886       179.048569
   9.29999924       179.993713
   9.39999962       180.946671
   9.50000000       181.907486
   9.60000038       182.876190
   9.70000076       183.853058
   9.80000114       184.838043
   9.90000153       185.831238
   10.0000019       186.832764
   10.1000023       187.842728
   10.2000027       188.861221
   10.3000031       189.888321
   10.4000034       190.924133
   10.5000038       191.968826
   10.6000042       193.022400
   10.7000046       194.084991
   10.8000050       195.156738
   10.9000053       196.237747
   11.0000057       197.328094
   11.1000061       198.427902
   11.2000065       199.537247
   11.3000069       200.656342
   11.4000072       201.785217
   11.5000076       202.923996
   11.6000080       204.072830
   11.7000084       205.231812
   11.8000088       206.401123
   11.9000092       207.580795
   12.0000095       208.771011
   12.1000099       209.971878
   12.2000103       211.183533
   12.3000107       212.406158
   12.4000111       213.639801
   12.5000114       214.884659
   12.6000118       216.140869
   12.7000122       217.408508
   12.8000126       218.687775
   12.9000130       219.978867
   13.0000134       221.281815
   13.1000137       222.596878
   13.2000141       223.924103
   13.3000145       225.263733
   13.4000149       226.615906
   13.5000153       227.980713
   13.6000156       229.358383
   13.7000160       230.749100
   13.8000164       232.152985
   13.9000168       233.570236
   14.0000172       235.001007
   14.1000175       236.445465
   14.2000179       237.903870
   14.3000183       239.376282
   14.4000187       240.862976
   14.5000191       242.364075
   14.6000195       243.879852
   14.7000198       245.410431
   14.8000202       246.956024
   14.9000206       248.516846
   15.0000210       250.093140
   15.1000214       251.685028
   15.2000217       253.292740
   15.3000221       254.916580
   15.4000225       256.556732
   15.5000229       258.213318
   15.6000233       259.886688
   15.7000237       261.576996
   15.8000240       263.284546
   15.9000244       265.009491
   16.0000248       266.752167
   16.1000252       268.512726
   16.2000256       270.291504
   16.3000259       272.088715
   16.4000263       273.904602
   16.5000267       275.739532
   16.6000271       277.593658
   16.7000275       279.467316
   16.8000278       281.360748
   16.9000282       283.274261
   17.0000286       285.208191
   17.1000290       287.162750
   17.2000294       289.138245
   17.3000298       291.135071
   17.4000301       293.153503
   17.5000305       295.193817
   17.6000309       297.256378
   17.7000313       299.341492
   17.8000317       301.449524
   17.9000320       303.580811
   18.0000324       305.735687
   18.1000328       307.914551
   18.2000332       310.117706
   18.3000336       312.345551
   18.4000340       314.598450
   18.5000343       316.876831
   18.6000347       319.181061
   18.7000351       321.511475
   18.8000355       323.868652
   18.9000359       326.252838
   19.0000362       328.664520
   19.1000366       331.104156
   19.2000370       333.572174
   19.3000374       336.069000
   19.4000378       338.595093
   19.5000381       341.151001
   19.6000385       343.737122
   19.7000389       346.353943
   19.8000393       349.002045
   19.9000397       351.681854
   20.0000401       354.393860
   20.1000404       357.138702
   20.2000408       359.916809
   20.3000412       362.728882
   20.4000416       365.575378
   20.5000420       368.456879
   20.6000423       371.373962
   20.7000427       374.327332
   20.8000431       377.317413
   20.9000435       380.345032
   21.0000439       383.410645
   21.1000443       386.515167
   21.2000446       389.658966
   21.3000450       392.842987
   21.4000454       396.067749
   21.5000458       399.334015
   21.6000462       402.642487
   21.7000465       405.994080
   21.8000469       409.389343
   21.9000473       412.829193
   22.0000477       416.314392
   22.1000481       419.845734
   22.2000484       423.424011
   22.3000488       427.050201
   22.4000492       430.725098
   22.5000496       434.449615
   22.6000500       438.224701
   22.7000504       442.051208
   22.8000507       445.930206
   22.9000511       449.862579
   23.0000515       453.849426
   23.1000519       457.891663
   23.2000523       461.990448
   23.3000526       466.146820
   23.4000530       470.361877
   23.5000534       474.636780
   23.6000538       478.972626
   23.7000542       483.370758
   23.8000546       487.832214
   23.9000549       492.358368
   24.0000553       496.950439
   24.1000557       501.609741
   24.2000561       506.337646
   24.3000565       511.135651
   24.4000568       516.004944
   24.5000572       520.947083
   24.6000576       525.963501
   24.7000580       531.055969
   24.8000584       536.225708
   24.9000587       541.474609
   25.0000591       546.804260
   25.1000595       552.216187
   25.2000599       557.712463
   25.3000603       563.294434
   25.4000607       568.964355
   25.5000610       574.723938
   25.6000614       580.575134
   25.7000618       586.519836
   25.8000622       592.560303
   25.9000626       598.698547
   26.0000629       604.936707
   26.1000633       611.277039
   26.2000637       617.721802
   26.3000641       624.273376
   26.4000645       630.934143
   26.5000648       637.706665
   26.6000652       644.593567
   26.7000656       651.597412
   26.8000660       658.720825
   26.9000664       665.966675
   27.0000668       673.337891
   27.1000671       680.837402
   27.2000675       688.468323
   27.3000679       696.233704
   27.4000683       704.136963
   27.5000687       712.181091
   27.6000690       720.370056
   27.7000694       728.707092
   27.8000698       737.195801
   27.9000702       745.840027
   28.0000706       754.643982
   28.1000710       763.611267
   28.2000713       772.746277
   28.3000717       782.053284
   28.4000721       791.536621
   28.5000725       801.201050
   28.6000729       811.051208
   28.7000732       821.091858
   28.8000736       831.328308
   28.9000740       841.765564
   29.0000744       852.409241
   29.1000748       863.264709    
   29.2000751       874.337891
   29.3000755       885.634705
   29.4000759       897.161316
   29.5000763       908.924255
   29.6000767       920.930237
   29.7000771       933.185730
   29.8000774       945.698120
   29.9000778       958.475098
   30.0000782       971.523804
   30.1000786       984.852356
   30.2000790       998.469055
   30.3000793       1012.38226
   30.4000797       1026.60120
   30.5000801       1041.13477
   30.6000805       1055.99268
   30.7000809       1071.18445
   30.8000813       1086.72119
   30.9000816       1102.61267
   31.0000820       1118.87097
   31.1000824       1135.50671
   31.2000828       1152.53271
   31.3000832       1169.96118
   31.4000835       1187.80542
   31.5000839       1206.07874
   31.6000843       1224.79541
   31.7000847       1243.96997
   31.8000851       1263.61829
   31.9000854       1283.75610
   32.0000839       1304.39954
   32.1000824       1325.56726
   32.2000809       1347.27649
   32.3000793       1369.54688
   32.4000778       1392.39832
   32.5000763       1415.85144
   32.6000748       1439.92786
   32.7000732       1464.65063
   32.8000717       1490.04358
   32.9000702       1516.13135
   33.0000687       1542.94019
   33.1000671       1570.49768
   33.2000656       1598.83203
   33.3000641       1627.97388
   33.4000626       1657.95422
   33.5000610       1688.80713
   33.6000595       1720.56677
   33.7000580       1753.26953
   33.8000565       1786.95447
   33.9000549       1821.66174
   34.0000534       1857.43433
   34.1000519       1894.31677
   34.2000504       1932.35645
   34.3000488       1971.60352
   34.4000473       2012.11023
   34.5000458       2053.93262
   34.6000443       2097.12842
   34.7000427       2141.76099
   34.8000412       2187.89478
   34.9000397       2235.60010
   35.0000381       2284.95044
   35.1000366       2336.02344
   35.2000351       2388.90112
   35.3000336       2443.67188
   35.4000320       2500.42896
   35.5000305       2559.27148
   35.6000290       2620.30444
   35.7000275       2683.63867
   35.8000259       2749.39648
   35.9000244       2817.70215
   36.0000229       2888.69385
   36.1000214       2962.51538
   36.2000198       3039.32178
   36.3000183       3119.28027
   36.4000168       3202.56738
   36.5000153       3289.37378
   36.6000137       3379.90503
   36.7000122       3474.37939
   36.8000107       3573.03418
   36.9000092       3676.12280
   37.0000076       3783.91992
   37.1000061       3896.72095
   37.2000046       4014.84521
   37.3000031       4138.63867
   37.4000015       4268.47461
   37.5000000       4404.76025
   37.5999985       4547.93311
   37.6999969       4698.47461
   37.7999954       4856.90625
   37.8999939       5023.79590
   37.9999924       5199.76318
   38.0999908       5385.48730
   38.1999893       5581.71484
   38.2999878       5789.25977
   38.3999863       6009.02295
   38.4999847       6241.99121
   38.5999832       6489.25391
   38.6999817       6752.02148
   38.7999802       7031.62793
   38.8999786       7329.55762
   38.9999771       7647.46240
   39.0999756       7987.18555
   39.1999741       8350.78320
   39.2999725       8740.56445
   39.3999710       9159.12109
   39.4999695       9609.37891
   39.5999680       10094.6338
   39.6999664       10618.6279
   39.7999649       11185.6182
   39.8999634       11800.4531
   39.9999619       12468.6875
   40.0999603       13196.6953
   40.1999588       13991.8311
   40.2999573       14862.6074
   40.3999557       15818.9189
   40.4999542       16872.3125
   40.5999527       18036.3477
   40.6999512       19326.9980
   40.7999496       20763.1875
   40.8999481       22367.4766
   40.9999466       24166.8945
   41.0999451       26194.0352
   41.1999435       28488.4727
   41.2999420       31098.5508
   41.3999405       34083.8125
   41.4999390       37518.0898
   41.5999374       41493.7656
   41.6999359       46127.3125
   41.7999344       51566.9414
   41.8999329       58002.9375
   41.9999313       65681.7109
   42.0999298       74925.1953
   42.1999283       86157.2266
   42.2999268       99938.8594
   42.3999252       117014.383
   42.4999237       138366.219
   42.5999222       165267.828
   42.6999207       199297.750
   42.7999191       242217.109
   42.8999176       295484.469
   42.9999161       358999.062
   43.0999146       428662.156
   43.1999130       493421.281
   43.2999115       535532.625
   43.3999100       539119.438
   43.4999084       502678.500
   43.5999069       440444.906
   43.6999054       370695.688
   43.7999039       305796.125
   43.8999023       250821.484
   43.9999008       206337.797
   44.0998993       171031.297
   44.1998978       143143.312
   44.2998962       121050.227
   44.3998947       103426.805
   44.4998932       89245.5234
   44.5998917       77726.5547
   44.6998901       68281.9375
   44.7998886       60467.9648
   44.8998871       53948.0352
   44.9998856       48464.9414
   45.0998840       43820.4844
   45.1998825       39860.6328
   45.2998810       36464.5938
   45.3998795       33536.8984
   45.4998779       31001.3750
   45.5998764       28796.9316
   45.6998749       26874.1055
   45.7998734       25192.6660
   45.8998718       23719.6797
   45.9998703       22428.0664
   46.0998688       21295.4668
   46.1998672       20303.3828
   46.2998657       19436.4844
   46.3998642       18682.0566
   46.4998627       18029.6191
   46.5998611       17470.5586
   46.6998596       16997.8809
   46.7998581       16606.0117
   46.8998566       16290.6582
   46.9998550       16048.6572
   47.0998535       15877.9473
   47.1998520       15777.4941
   47.2998505       15747.2939
   47.3998489       15788.3828
   47.4998474       15902.8896
   47.5998459       16094.1338
   47.6998444       16366.7295
   47.7998428       16726.7871
   47.8998413       17182.1387
   47.9998398       17742.6230
   48.0998383       18420.5254
   48.1998367       19231.0625
   48.2998352       20193.0957
   48.3998337       21329.9648
   48.4998322       22670.7031
   48.5998306       24251.5449
   48.6998291       26117.9531
   48.7998276       28327.3672
   48.8998260       30952.8770
   48.9998245       34088.2227
   49.0998230       37854.6289
   49.1998215       42410.1680
   49.2998199       47962.5078
   49.3998184       54786.2617
   49.4998169       63245.8203
   49.5998154       73823.8281
   49.6998138       87152.0781
   49.7998123       104031.680
   49.8998108       125405.984
   49.9998093       152195.344
   50.0998077       184810.531
   50.1998062       222085.609
   50.2998047       259640.453
   50.3998032       288939.156
   50.4998016       299986.031
   50.5998001       288172.750
   50.6997986       258350.766
   50.7997971       220558.000
   50.8997955       183225.453
   50.9997940       150620.281
   51.0997925       123842.477
   51.1997910       102455.227
   51.2997894       85532.5625
   51.3997879       72133.4531
   51.4997864       61461.1367
   51.5997849       52887.9688
   51.6997833       45934.6094
   51.7997818       40239.0859
   51.8997803       35528.4453
   51.9997787       31596.0625
   52.0997772       28284.4805
   52.1997757       25472.7305
   52.2997742       23067.0508
   52.3997726       20994.1035
   52.4997711       19196.0332
   52.5997696       17626.7910
   52.6997681       16249.4150
   52.7997665       15034.0186
   52.8997650       13956.2305
   52.9997635       12996.0537
   53.0997620       12136.9590
   53.1997604       11365.2021
   53.2997589       10669.2803
   53.3997574       10039.5117
   53.4997559       9467.70996
   53.5997543       8946.91016
   53.6997528       8471.16016
   53.7997513       8035.35254
   53.8997498       7635.08057
   53.9997482       7266.53174
   54.0997467       6926.39453
   54.1997452       6611.77441
   54.2997437       6320.14111
   54.3997421       6049.27100
   54.4997406       5797.20459
   54.5997391       5562.20947
   54.6997375       5342.74902
   54.7997360       5137.45850
   54.8997345       4945.12012
   54.9997330       4764.64551
   55.0997314       4595.05908
   55.1997299       4435.48633
   55.2997284       4285.13867
   55.3997269       4143.30322
   55.4997253       4009.33911
   55.5997238       3882.66211
   55.6997223       3762.74438
   55.7997208       3649.10547
   55.8997192       3541.30688
   55.9997177       3438.94824
   56.0997162       3341.66455
   56.1997147       3249.12158
   56.2997131       3161.01245
   56.3997116       3077.05493
   56.4997101       2996.98975
   56.5997086       2920.57910
   56.6997070       2847.60132
   56.7997055       2777.85327
   56.8997040       2711.14795
   56.9997025       2647.31055
   57.0997009       2586.17944
   57.1996994       2527.60498
   57.2996979       2471.44824
   57.3996964       2417.57959
   57.4996948       2365.87793
   57.5996933       2316.23145
   57.6996918       2268.53540
   57.7996902       2222.69165
   57.8996887       2178.60938
   57.9996872       2136.20166
   58.0996857       2095.38940
   58.1996841       2056.09717
   58.2996826       2018.25488
   58.3996811       1981.79602
   58.4996796       1946.65869
   58.5996780       1912.78430
   58.6996765       1880.11841
   58.7996750       1848.60950
   58.8996735       1818.20813
   58.9996719       1788.86951
   59.0996704       1760.54919
   59.1996689       1733.20752
   59.2996674       1706.80554
   59.3996658       1681.30701
   59.4996643       1656.67773
   59.5996628       1632.88501
   59.6996613       1609.89856
   59.7996597       1587.68896
   59.8996582       1566.22900
   59.9996567       1545.49292
   60.0996552       1525.45605
   60.1996536       1506.09521
   60.2996521       1487.38806
   60.3996506       1469.31421
   60.4996490       1451.85352
   60.5996475       1434.98767
   60.6996460       1418.69873
   60.7996445       1402.97021
   60.8996429       1387.78625
   60.9996414       1373.13184
   61.0996399       1358.99243
   61.1996384       1345.35559
   61.2996368       1332.20801
   61.3996353       1319.53809
   61.4996338       1307.33435
   61.5996323       1295.58630
   61.6996307       1284.28406
   61.7996292       1273.41858
   61.8996277       1262.98071
   61.9996262       1252.96240
   62.0996246       1243.35608
   62.1996231       1234.15491
   62.2996216       1225.35181
   62.3996201       1216.94128
   62.4996185       1208.91748
   62.5996170       1201.27527
   62.6996155       1194.01025
   62.7996140       1187.11816
   62.8996124       1180.59546
   62.9996109       1174.43884
   63.0996094       1168.64575
   63.1996078       1163.21338
   63.2996063       1158.14026
   63.3996048       1153.42505
   63.4996033       1149.06653
   63.5996017       1145.06445
   63.6996002       1141.41858
   63.7995987       1138.12976
   63.8995972       1135.19824
   63.9995956       1132.62598
   64.0995941       1130.41431
   64.1995926       1128.56592
   64.2995911       1127.08374
   64.3995895       1125.97095
   64.4995880       1125.23169
   64.5995865       1124.87036
   64.6995850       1124.89221
   64.7995834       1125.30273
   64.8995819       1126.10864
   64.9995804       1127.31653
   65.0995789       1128.93408
   65.1995773       1130.97009
   65.2995758       1133.43372
   65.3995743       1136.33459
   65.4995728       1139.68408
   65.5995712       1143.49341
   65.6995697       1147.77551
   65.7995682       1152.54431
   65.8995667       1157.81396
   65.9995651       1163.60107
   66.0995636       1169.92236
   66.1995621       1176.79639
   66.2995605       1184.24280
   66.3995590       1192.28320
   66.4995575       1200.94019
   66.5995560       1210.23853
   66.6995544       1220.20471
   66.7995529       1230.86658
   66.8995514       1242.25549
   66.9995499       1254.40369
   67.0995483       1267.34656
   67.1995468       1281.12256
   67.2995453       1295.77197
   67.3995438       1311.33936
   67.4995422       1327.87207
   67.5995407       1345.42151
   67.6995392       1364.04272
   67.7995377       1383.79590
   67.8995361       1404.74585
   67.9995346       1426.96216
   68.0995331       1450.52075
   68.1995316       1475.50427
   68.2995300       1502.00195
   68.3995285       1530.11108
   68.4995270       1559.93701
   68.5995255       1591.59570
   68.6995239       1625.21216
   68.7995224       1660.92444
   68.8995209       1698.88293
   68.9995193       1739.25171
   69.0995178       1782.21301
   69.1995163       1827.96472
   69.2995148       1876.72668
   69.3995132       1928.74060
   69.4995117       1984.27380
   69.5995102       2043.62244
   69.6995087       2107.11523
   69.7995071       2175.11768
   69.8995056       2248.03735
   69.9995041       2326.32935
   70.0995026       2410.50342
   70.1995010       2501.13281
   70.2994995       2598.86133
   70.3994980       2704.41650
   70.4994965       2818.62207
   70.5994949       2942.41309
   70.6994934       3076.85498
   70.7994919       3223.16577
   70.8994904       3382.74146
   70.9994888       3557.18921
   71.0994873       3748.36816
   71.1994858       3958.43359
   71.2994843       4189.89697
   71.3994827       4445.69971
   71.4994812       4729.30127
   71.5994797       5044.79053
   71.6994781       5397.02783
   71.7994766       5791.82275
   71.8994751       6236.16309
   71.9994736       6738.49951
   72.0994720       7309.13232
   72.1994705       7960.69678
   72.2994690       8708.81152
   72.3994675       9572.93848
   72.4994659       10577.5264
   72.5994644       11753.5508
   72.6994629       13140.6113
   72.7994614       14789.7959
   72.8994598       16767.5684
   72.9994583       19161.1387
   73.0994568       22085.6895
   73.1994553       25693.9766
   73.2994537       30188.3223
   73.3994522       35833.8438
   73.4994507       42967.7305
   73.5994492       51989.8594
   73.6994476       63298.2734
   73.7994461       77094.0781
   73.8994446       92945.7031
   73.9994431       109098.234
   74.0994415       122016.727
   74.1994400       127395.812
   74.2994385       123022.664
   74.3994370       110716.492
   74.4994354       94713.7734
   74.5994339       78718.4219
   74.6994324       64667.6289
   74.7994308       53098.7891
   74.8994293       43852.4297
   74.9994278       36539.0117
   75.0994263       30754.2246
   75.1994247       26153.1973
   75.2994232       22463.3867
   75.3994217       19476.3789
   75.4994202       17034.7344
   75.5994186       15019.7510
   75.6994171       13341.6211
   75.7994156       11931.9404
   75.8994141       10738.1963
   75.9994125       9719.70996
   76.0994110       8844.69727
   76.1994095       8088.09814
   76.2994080       7429.98145
   76.3994064       6854.36426
   76.4994049       6348.32959
   76.5994034       5901.35791
   76.6994019       5504.82031
   76.7994003       5151.59326
   76.8993988       4835.75781
   76.9993973       4552.36377
   77.0993958       4297.24854
   77.1993942       4066.89746
   77.2993927       3858.32227
   77.3993912       3668.97241
   77.4993896       3496.66162
   77.5993881       3339.50635
   77.6993866       3195.87988
   77.7993851       3064.36841
   77.8993835       2943.74170
   77.9993820       2832.92358
   78.0993805       2730.97290
   78.1993790       2637.05859
   78.2993774       2550.45044
   78.3993759       2470.50122
   78.4993744       2396.63647
   78.5993729       2328.34790
   78.6993713       2265.18115
   78.7993698       2206.72974
   78.8993683       2152.63281
   78.9993668       2102.56421
   79.0993652       2056.23340
   79.1993637       2013.37781
   79.2993622       1973.76270
   79.3993607       1937.17444
   79.4993591       1903.42249
   79.5993576       1872.33386
   79.6993561       1843.75256
   79.7993546       1817.53784
   79.8993530       1793.56213
   79.9993515       1771.71130
   80.0993500       1751.88123
   80.1993484       1733.97925
   80.2993469       1717.92114
   80.3993454       1703.63159
   80.4993439       1691.04358
   80.5993423       1680.09680
   80.6993408       1670.73853
   80.7993393       1662.92163
   80.8993378       1656.60535
   80.9993362       1651.75464
   81.0993347       1648.33936
   81.1993332       1646.33484
   81.2993317       1645.72083
   81.3993301       1646.48169
   81.4993286       1648.60693
   81.5993271       1652.08948
   81.6993256       1656.92737
   81.7993240       1663.12256
   81.8993225       1670.68079
   81.9993210       1679.61243
   82.0993195       1689.93213
   82.1993179       1701.65906
   82.2993164       1714.81567
   82.3993149       1729.42993
   82.4993134       1745.53418
   82.5993118       1763.16504
   82.6993103       1782.36475
   82.7993088       1803.18005
   82.8993073       1825.66431
   82.9993057       1849.87524
   83.0993042       1875.87817
   83.1993027       1903.74341
   83.2993011       1933.54956
   83.3992996       1965.38245
   83.4992981       1999.33569
   83.5992966       2035.51196
   83.6992950       2074.02271
   83.7992935       2114.99121
   83.8992920       2158.55029
   83.9992905       2204.84595
   84.0992889       2254.03662
   84.1992874       2306.29712
   84.2992859       2361.81567
   84.3992844       2420.80103
   84.4992828       2483.47949
   84.5992813       2550.10059
   84.6992798       2620.93579
   84.7992783       2696.28467
   84.8992767       2776.47632
   84.9992752       2861.87183
   85.0992737       2952.87183
   85.1992722       3049.91406
   85.2992706       3153.48706
   85.3992691       3264.12915
   85.4992676       3382.43945
   85.5992661       3509.08228
   85.6992645       3644.79980
   85.7992630       3790.41895
   85.8992615       3946.86694
   85.9992599       4115.18359
   86.0992584       4296.53760
   86.1992569       4492.24756
   86.2992554       4703.80566
   86.3992538       4932.90283
   86.4992523       5181.46631
   86.5992508       5451.69092
   86.6992493       5746.09521
   86.7992477       6067.57422
   86.8992462       6419.46436
   86.9992447       6805.63477
   87.0992432       7230.58643
   87.1992416       7699.57861
   87.2992401       8218.78613
   87.3992386       8795.49414
   87.4992371       9438.34180
   87.5992355       10157.6396
   87.6992340       10965.7490
   87.7992325       11877.5967
   87.8992310       12911.3184
   87.9992294       14089.1035
   88.0992279       15438.3086
   88.1992264       16992.9121
   88.2992249       18795.4629
   88.3992233       20899.7051
   88.4992218       23374.1113
   88.5992203       26306.7109
   88.6992188       29811.6914
   88.7992172       34038.3984
   88.8992157       39183.6797
   88.9992142       45508.2617
   89.0992126       53357.9844
   89.1992111       63188.4609
   89.2992096       75587.4766
   89.3992081       91275.4531
   89.4992065       111033.875
   89.5992050       135449.375
   89.6992035       164280.094
   89.7992020       195291.016
   89.8992004       223014.578
   89.9991989       239340.219
   90.0991974       237910.672
   90.1991959       219337.219
   90.2991943       190644.594
   90.3991928       159726.719
   90.4991913       131517.578
   90.5991898       107855.570
   90.6991882       88793.6562
   90.7991867       73686.5078
   90.8991852       61752.0039
   90.9991837       52288.2148
   91.0991821       44728.7070
   91.1991806       38636.4688
   91.2991791       33680.4648
   91.3991776       29611.2070
   91.4991760       26240.3496
   91.5991745       23424.9043
   91.6991730       21055.5410
   91.7991714       19047.9668
   91.8991699       17336.6641
   91.9991684       15870.2783
   92.0991669       14608.2852
   92.1991653       13518.4648
   92.2991638       12575.0801
   92.3991623       11757.4902
   92.4991608       11049.1035
   92.5991592       10436.6104
   92.6991577       9909.40039
   92.7991562       9459.11230
   92.8991547       9079.33496
   92.9991531       8765.37891
   93.0991516       8514.14551
   93.1991501       8324.07422
   93.2991486       8195.16602
   93.3991470       8129.09033
   93.4991455       8129.39795
   93.5991440       8201.84766
   93.6991425       8354.90332
   93.7991409       8600.43359
   93.8991394       8954.70898
   93.9991379       9439.78125
   94.0991364       10085.3906
   94.1991348       10931.5518
   94.2991333       12031.9111
   94.3991318       13457.8018
   94.4991302       15302.2129
   94.5991287       17681.0254
   94.6991272       20724.5137
   94.7991257       24542.7734
   94.8991241       29135.1562
   94.9991226       34212.1680
   95.0991211       38973.5898
   95.1991196       42110.0977
   95.2991180       42414.5430
   95.3991165       39721.8320
   95.4991150       35058.3906
   95.5991135       29791.0020
   95.6991119       24863.0391
   95.7991104       20670.2832
   95.8991089       17263.6445
   95.9991074       14548.0576
   96.0991058       12392.5615
   96.1991043       10675.3291
   96.2991028       9296.59473
   96.3991013       8178.87158
   96.4990997       7263.29395
   96.5990982       6505.44727
   96.6990967       5871.79004
   96.7990952       5336.85498
   96.8990936       4881.16406
   96.9990921       4489.69238
   97.0990906       4150.74072
   97.1990891       3855.11865
   97.2990875       3595.54175
   97.3990860       3366.18311
   97.4990845       3162.34839
   97.5990829       2980.21826
   97.6990814       2816.66675
   97.7990799       2669.11523
   97.8990784       2535.42285
   97.9990768       2413.79980
   98.0990753       2302.74072
   98.1990738       2200.97314
   98.2990723       2107.41357
   98.3990707       2021.13721
   98.4990692       1941.34888
   98.5990677       1867.36267
   98.6990662       1798.58325
   98.7990646       1734.49329
   98.8990631       1674.63989
   98.9990616       1618.62561
   99.0990601       1566.10107
   99.1990585       1516.75732
   99.2990570       1470.31995
   99.3990555       1426.54553
   99.4990540       1385.21655
   99.5990524       1346.13843
   99.6990509       1309.13660
   99.7990494       1274.05432
   99.8990479       1240.75000
   99.9990463       1209.09546
   100.099045       1178.97485
   100.199043       1150.28271
   100.299042       1122.92358
   100.399040       1096.80969
   100.499039       1071.86157
   100.599037       1048.00574
   100.699036       1025.17529
   100.799034       1003.30859
   100.899033       982.349182
   100.999031       962.244446
   101.099030       942.946411
   101.199028       924.410339
   101.299026       906.595093
   101.399025       889.462097
   101.499023       872.976135
   101.599022       857.104004
   101.699020       841.814941
   101.799019       827.080322
   101.899017       812.873413
   101.999016       799.169128
   102.099014       785.944397
   102.199013       773.177246
   102.299011       760.847168
   102.399010       748.934998
   102.499008       737.422729
   102.599007       726.293640
   102.699005       715.531738
   102.799004       705.122070
   102.899002       695.050659
   102.999001       685.304199
   103.098999       675.870361
   103.198997       666.737244
   103.298996       657.893799
   103.398994       649.329590
   103.498993       641.034912
   103.598991       633.000061
   103.698990       625.216675
   103.798988       617.676025
   103.898987       610.370605
   103.998985       603.292725
   104.098984       596.435425
   104.198982       589.792175
   104.298981       583.356567
   104.398979       577.122803
   104.498978       571.085205
   104.598976       565.238586
   104.698975       559.577759
   104.798973       554.098145
   104.898972       548.795349
   104.998970       543.665283
   105.098969       538.703735
   105.198967       533.907288
   105.298965       529.272339
   105.398964       524.795776
   105.498962       520.474548
   105.598961       516.305786
   105.698959       512.287048
   105.798958       508.415771
   105.898956       504.689789
   105.998955       501.107147
   106.098953       497.665894
   106.198952       494.364502
   106.298950       491.201355
   106.398949       488.175293
   106.498947       485.285065
   106.598946       482.529816
   106.698944       479.908752
   106.798943       477.421234
   106.898941       475.066986
   106.998940       472.845490
   107.098938       470.756927
   107.198936       468.801361
   107.298935       466.979034
   107.398933       465.290436
   107.498932       463.736298
   107.598930       462.317505
   107.698929       461.035095
   107.798927       459.890503
   107.898926       458.885010
   107.998924       458.020569
   108.098923       457.299042
   108.198921       456.722687
   108.298920       456.294006
   108.398918       456.015717
   108.498917       455.890900
   108.598915       455.922882
   108.698914       456.115204
   108.798912       456.472046
   108.898911       456.997681
   108.998909       457.696747
   109.098907       458.574402
   109.198906       459.636230
   109.298904       460.888214
   109.398903       462.336792
   109.498901       463.989014
   109.598900       465.852386
   109.698898       467.935181
   109.798897       470.246185
   109.898895       472.794800
   109.998894       475.591461
   110.098892       478.647125
   110.198891       481.973846
   110.298889       485.584503
   110.398888       489.492981
   110.498886       493.714478
   110.598885       498.265350
   110.698883       503.163116
   110.798882       508.427032
   110.898880       514.077698
   110.998878       520.137817
   111.098877       526.631714
   111.198875       533.585815
   111.298874       541.029236
   111.398872       548.993286
   111.498871       557.512512
   111.598869       566.624146
   111.698868       576.369324
   111.798866       586.792969
   111.898865       597.944336
   111.998863       609.877380
   112.098862       622.651672
   112.198860       636.332764
   112.298859       650.993042
   112.398857       666.712341
   112.498856       683.579346
   112.598854       701.692627
   112.698853       721.161621
   112.798851       742.108337
   112.898849       764.669128
   112.998848       788.997009
   113.098846       815.263428
   113.198845       843.661682
   113.298843       874.409851
   113.398842       907.754761
   113.498840       943.977234
   113.598839       983.396729
   113.698837       1026.37830
   113.798836       1073.34119
   113.898834       1124.76770
   113.998833       1181.21521
   114.098831       1243.33081
   114.198830       1311.86890
   114.298828       1387.71118
   114.398827       1471.89661
   114.498825       1565.65247
   114.598824       1670.43823
   114.698822       1787.99768
   114.798820       1920.42847
   114.898819       2070.26880
   114.998817       2240.61108
   115.098816       2435.25000
   115.198814       2658.87549
   115.298813       2917.33203
   115.398811       3217.96265
   115.498810       3570.07178
   115.598808       3985.55420
   115.698807       4479.75391
   115.798805       5072.64111
   115.898804       5790.41162
   115.998802       6667.67236
   116.098801       7750.31299
   116.198799       9099.12207
   116.298798       10793.7324
   116.398796       12935.4121
   116.498795       15644.1855
   116.598793       19039.3242
   116.698792       23180.5293
   116.798790       27936.7422
   116.898788       32778.7188
   116.998787       36643.3711
   117.098785       38240.0859
   117.198784       36911.1641
   117.298782       33208.6836
   117.398781       28404.7969
   117.498779       23607.9121
   117.598778       19396.1836
   117.698776       15929.0586
   117.798775       13158.0117
   117.898773       10966.0361
   117.998772       9231.93262
   118.098770       7852.36719
   118.198769       6745.70801
   118.298767       5849.53809
   118.398766       5116.70752
   118.498764       4511.66650
   118.598763       4007.51587
   118.698761       3583.77002
   118.798759       3224.69873
   118.898758       2918.11743
   118.998756       2654.50464
   119.098755       2426.35181
   119.198753       2227.68774
   119.298752       2053.72290
   119.398750       1900.58716
   119.498749       1765.12769
   119.598747       1644.75830
   119.698746       1537.34326
   119.798744       1441.10791
   119.898743       1354.56824
   119.998741       1276.47620
   120.098740       1205.77698
   120.198738       1141.57410
   120.298737       1083.10181
   120.398735       1029.70410
   120.498734       980.815247
   120.598732       935.945862
   120.698730       894.671570
   120.798729       856.621826
   120.898727       821.473328
   120.998726       788.941345
   121.098724       758.776245
   121.198723       730.756958
   121.298721       704.687866
   121.398720       680.395386
   121.498718       657.724915
   121.598717       636.538330
   121.698715       616.712158
   121.798714       598.135620
   121.898712       580.709167
   121.998711       564.343140
   122.098709       548.956726
   122.198708       534.476562
   122.298706       520.836426
   122.398705       507.976227
   122.498703       495.841125
   122.598701       484.381470
   122.698700       473.551697
   122.798698       463.310455
   122.898697       453.619720
   122.998695       444.444794
   123.098694       435.753876
   123.198692       427.517578
   123.298691       419.709167
   123.398689       412.303802
   123.498688       405.278748
   123.598686       398.613068
   123.698685       392.287292
   123.798683       386.283569
   123.898682       380.585419
   123.998680       375.177551
   124.098679       370.045807
   124.198677       365.177155
   124.298676       360.559418
   124.398674       356.181488
   124.498672       352.032959
   124.598671       348.104187
   124.698669       344.386292
   124.798668       340.871094
   124.898666       337.550964
   124.998665       334.418823
   125.098663       331.468292
   125.198662       328.693298
   125.298660       326.088379
   125.398659       323.648438
   125.498657       321.368896
   125.598656       319.245483
   125.698654       317.274323
   125.798653       315.451965
   125.898651       313.775238
   125.998650       312.241272
   126.098648       310.847687
   126.198647       309.592194
   126.298645       308.472961
   126.398643       307.488312
   126.498642       306.636932
   126.598640       305.917816
   126.698639       305.330109
   126.798637       304.873352
   126.898636       304.547241
   126.998634       304.351807
   127.098633       304.287292
   127.198631       304.354248
   127.298630       304.553467
   127.398628       304.886017
   127.498627       305.353241
   127.598625       305.956726
   127.698624       306.698395
   127.798622       307.580414
   127.898621       308.605316
   127.998619       309.775909
   128.098618       311.095276
   128.198624       312.567078
   128.298630       314.195038
   128.398636       315.983307
   128.498642       317.936584
   128.598648       320.059753
   128.698654       322.358398
   128.798660       324.838318
   128.898666       327.506042
   128.998672       330.368439
   129.098679       333.432983
   129.198685       336.707825
   129.298691       340.201660
   129.398697       343.923950
   129.498703       347.884949
   129.598709       352.095459
   129.698715       356.567444
   129.798721       361.313629
   129.898727       366.347839
   129.998734       371.684875
   130.098740       377.340942
   130.198746       383.333252
   130.298752       389.680664
   130.398758       396.403534
   130.498764       403.523773
   130.598770       411.065247
   130.698776       419.053864
   130.798782       427.517700
   130.898788       436.487183
   130.998795       445.995697
   131.098801       456.079315
   131.198807       466.777618
   131.298813       478.133606
   131.398819       490.194550
   131.498825       503.012054
   131.598831       516.642822
   131.698837       531.149109
   131.798843       546.599487
   131.898849       563.069458
   131.998856       580.642456
   132.098862       599.411011
   132.198868       619.477173
   132.298874       640.954834
   132.398880       663.970703
   132.498886       688.665894
   132.598892       715.198547
   132.698898       743.745789
   132.798904       774.506897
   132.898911       807.706177
   132.998917       843.597534
   133.098923       882.468384
   133.198929       924.645874
   133.298935       970.502991
   133.398941       1020.46680
   133.498947       1075.02783
   133.598953       1134.75159
   133.698959       1200.29285
   133.798965       1272.41260
   133.898972       1351.99939
   133.998978       1440.09570
   134.098984       1537.92981
   134.198990       1646.95728
   134.298996       1768.91223
   134.399002       1905.87231
   134.499008       2060.34302
   134.599014       2235.36328
   134.699020       2434.64771
   134.799026       2662.76636
   134.899033       2925.38818
   134.999039       3229.59985
   135.099045       3584.33496
   135.199051       4000.95630
   135.299057       4494.04248
   135.399063       5082.47119
   135.499069       5790.89014
   135.599075       6651.73828
   135.699081       7707.95068
   135.799088       9016.48828
   135.899094       10652.5752
   135.999100       12713.8760
   136.099106       15321.8877
   136.199112       18613.3145
   136.299118       22704.6016
   136.399124       27598.5078
   136.499130       32999.5820
   136.599136       38081.8438
   136.699142       41483.8672
   136.799149       41936.7969
   136.899155       39248.6172
   136.999161       34478.2617
   137.099167       29054.9902
   137.199173       23972.5156
   137.299179       19651.1816
   137.399185       16147.7998
   137.499191       13364.4795
   137.599197       11164.7900
   137.699203       9421.46875
   137.799210       8030.19385
   137.899216       6909.93604
   137.999222       5999.14990
   138.099228       5251.42725
   138.199234       4631.74414
   138.299240       4113.53516
   138.399246       3676.50098
   138.499252       3305.00293
   138.599258       2986.88110
   138.699265       2712.59937
   138.799271       2474.60986
   138.899277       2266.89014
   138.999283       2084.59424
   139.099289       1923.79224
   139.199295       1781.27417
   139.299301       1654.39978
   139.399307       1540.98230
   139.499313       1439.20032
   139.599319       1347.52722
   139.699326       1264.67566
   139.799332       1189.55591
   139.899338       1121.23975
   139.999344       1058.93286
   140.099350       1001.95300
   140.199356       949.711365
   140.299362       901.697571
   140.399368       857.468140
   140.499374       816.635620
   140.599380       778.860779
   140.699387       743.845459
   140.799393       711.326843
   140.899399       681.072510
   140.999405       652.876404
   141.099411       626.555359
   141.199417       601.945923
   141.299423       578.902100
   141.399429       557.293091
   141.499435       537.001404
   141.599442       517.921387
   141.699448       499.957764
   141.799454       483.024261
   141.899460       467.042908
   141.999466       451.942932
   142.099472       437.659973
   142.199478       424.135529
   142.299484       411.316071
   142.399490       399.152863
   142.499496       387.601257
   142.599503       376.620300
   142.699509       366.172455
   142.799515       356.223267
   142.899521       346.740845
   142.999527       337.696045
   143.099533       329.061768
   143.199539       320.813080
   143.299545       312.926941
   143.399551       305.381897
   143.499557       298.158173
   143.599564       291.237366
   143.699570       284.602295
   143.799576       278.237183
   143.899582       272.127075
   143.999588       266.258240
   144.099594       260.617859
   144.199600       255.193787
   144.299606       249.974808
   144.399612       244.950409
   144.499619       240.110748
   144.599625       235.446579
   144.699631       230.949219
   144.799637       226.610565
   144.899643       222.422943
   144.999649       218.379211
   145.099655       214.472565
   145.199661       210.696686
   145.299667       207.045532
   145.399673       203.513474
   145.499680       200.095169
   145.599686       196.785583
   145.699692       193.579956
   145.799698       190.473755
   145.899704       187.462753
   145.999710       184.542908
   146.099716       181.710434
   146.199722       178.961670
   146.299728       176.293182
   146.399734       173.701752
   146.499741       171.184250
   146.599747       168.737762
   146.699753       166.359497
   146.799759       164.046799
   146.899765       161.797134
   146.999771       159.608109
   147.099777       157.477448
   147.199783       155.402924
   147.299789       153.382507
   147.399796       151.414200
   147.499802       149.496124
   147.599808       147.626434
   147.699814       145.803452
   147.799820       144.025528
   147.899826       142.291077
   147.999832       140.598572
   148.099838       138.946609
   148.199844       137.333801
   148.299850       135.758850
   148.399857       134.220428
   148.499863       132.717407
   148.599869       131.248581
   148.699875       129.812836
   148.799881       128.409134
   148.899887       127.036446
   148.999893       125.693771
   149.099899       124.380196
   149.199905       123.094788
   149.299911       121.836700
   149.399918       120.605087
   149.499924       119.399147
   149.599930       118.218109
   149.699936       117.061234
   149.799942       115.927811
   149.899948       114.817139
   149.999954       113.728569
